<?xml version="1.0" encoding="UTF-8" standalone="no"?>
<svg
   viewBox="0 0 576 512"
   version="1.1"
   id="svg4"
   sodipodi:docname="shopping-basket.svg"
   inkscape:version="1.1.1 (3bf5ae0d25, 2021-09-20)"
   xmlns:inkscape="http://www.inkscape.org/namespaces/inkscape"
   xmlns:sodipodi="http://sodipodi.sourceforge.net/DTD/sodipodi-0.dtd"
   xmlns="http://www.w3.org/2000/svg"
   xmlns:svg="http://www.w3.org/2000/svg">
  <defs
     id="defs8" />
  <sodipodi:namedview
     id="namedview6"
     pagecolor="#ffffff"
     bordercolor="#666666"
     borderopacity="1.0"
     inkscape:pageshadow="2"
     inkscape:pageopacity="0.0"
     inkscape:pagecheckerboard="0"
     showgrid="false"
     inkscape:zoom="1.6484375"
     inkscape:cx="284.20853"
     inkscape:cy="256.30332"
     inkscape:window-width="1920"
     inkscape:window-height="1016"
     inkscape:window-x="1920"
     inkscape:window-y="27"
     inkscape:window-maximized="1"
     inkscape:current-layer="svg4" />
  <!-- Font Awesome Free 5.15.4 by @fontawesome - https://fontawesome.com License - https://fontawesome.com/license/free (Icons: CC BY 4.0, Fonts: SIL OFL 1.1, Code: MIT License) -->
  <path
     d="M576 216v16c0 13.255-10.745 24-24 24h-8l-26.113 182.788C514.509 462.435 494.257 480 470.37 480H105.63c-23.887 0-44.139-17.565-47.518-41.212L32 256h-8c-13.255 0-24-10.745-24-24v-16c0-13.255 10.745-24 24-24h67.341l106.78-146.821c10.395-14.292 30.407-17.453 44.701-7.058 14.293 10.395 17.453 30.408 7.058 44.701L170.477 192h235.046L326.12 82.821c-10.395-14.292-7.234-34.306 7.059-44.701 14.291-10.395 34.306-7.235 44.701 7.058L484.659 192H552c13.255 0 24 10.745 24 24zM312 392V280c0-13.255-10.745-24-24-24s-24 10.745-24 24v112c0 13.255 10.745 24 24 24s24-10.745 24-24zm112 0V280c0-13.255-10.745-24-24-24s-24 10.745-24 24v112c0 13.255 10.745 24 24 24s24-10.745 24-24zm-224 0V280c0-13.255-10.745-24-24-24s-24 10.745-24 24v112c0 13.255 10.745 24 24 24s24-10.745 24-24z"
     id="path2" />
  <path
     style="fill:#2c3e50;stroke-width:0.606635;fill-opacity:1"
     d="M 95.848341,478.64927 C 87.308818,476.77398 79.708099,472.71576 73.251694,466.58433 66.31859,460.00019 61.734849,452.51264 59.575788,444.24469 59.08628,442.37016 52.739627,399.20806 45.472116,348.32892 L 32.258461,255.82139 25.532074,255.55928 C 16.360411,255.20188 12.89136,253.83644 7.5274604,248.47254 4.6273391,245.57242 3.1274631,243.47402 2.0677448,240.83412 0.67822165,237.37265 0.60663507,236.53885 0.60663507,223.81601 v -13.3783 l 2.28843563,-4.62947 c 3.7193184,-7.52411 9.9124233,-11.97472 18.3371563,-13.1778 2.406123,-0.3436 18.616581,-0.61162 37.404759,-0.61842 L 91.795297,192 144.98951,118.74882 c 37.43114,-51.544616 54.40439,-74.436315 57.27807,-77.250523 12.57731,-12.317009 31.63835,-12.119672 44.13804,0.456955 9.39128,9.449084 11.80586,22.965497 6.26802,35.087402 -0.97368,2.131295 -18.40497,26.644676 -42.05895,59.146916 l -40.39612,55.50711 117.45474,0.1532 c 64.6001,0.0843 117.56611,0.0418 117.70224,-0.0943 0.13612,-0.13612 -17.68103,-24.89626 -39.59367,-55.02252 C 343.86923,106.60679 325.17255,80.579087 324.23369,78.893708 321.68501,74.318476 320.60664,69.890382 320.60664,64 c 0,-9.247844 3.06651,-16.401101 9.72274,-22.680256 6.33874,-5.979647 13.30457,-8.843678 21.54317,-8.857568 7.57541,-0.01277 15.4542,2.941078 21.09986,7.910587 1.41235,1.243196 26.99266,35.86108 56.84514,76.928637 l 54.27724,74.66827 33.36493,0.0274 c 18.35071,0.015 35.05344,0.27162 37.11717,0.57018 11.19573,1.61962 19.41549,9.95845 20.86077,21.16294 0.70642,5.47659 0.67285,15.84901 -0.0681,21.03762 -1.19829,8.39122 -5.65867,14.62056 -13.10314,18.29982 -4.2822,2.11638 -4.97014,2.26701 -11.49412,2.51673 -6.47262,0.24775 -6.95857,0.35226 -7.22579,1.55392 -0.15757,0.70856 -6.17513,42.64564 -13.37236,93.19351 -14.23821,99.99832 -13.75694,97.30887 -18.96788,105.99691 -6.65288,11.09216 -17.42347,18.99457 -29.99719,22.00901 -4.92706,1.18123 -7.76894,1.1982 -193.36074,1.15487 -153.47032,-0.0359 -189.03439,-0.19203 -191.999999,-0.84328 z m 88.859499,-63.95363 c 6.49173,-2.46666 12.15734,-8.33804 14.4433,-14.96786 0.93688,-2.71717 1.04613,-8.32268 1.2035,-61.75252 0.11411,-38.74246 -0.0414,-59.92795 -0.4564,-62.18009 -2.6332,-14.28988 -16.99469,-23.16575 -30.73177,-18.99324 -7.11432,2.16091 -12.06491,6.46894 -15.25314,13.2734 l -1.64793,3.51709 v 62.48341 62.48341 l 1.62582,3.46878 c 5.41059,11.54381 19.03494,17.14431 30.81662,12.66762 z m 108.11538,1.08676 c 7.31891,-1.53127 14.18015,-6.96701 17.36139,-13.75438 l 1.62582,-3.46878 v -62.48341 -62.48341 l -1.89586,-3.94313 c -5.8019,-12.06718 -20.07561,-17.23065 -32.08998,-11.60844 -6.98706,3.26964 -11.32129,8.53757 -13.31173,16.17941 -1.40395,5.39013 -1.39874,118.32931 0.005,123.75655 3.28783,12.70523 15.61576,20.46036 28.30464,17.80559 z m 111.52353,0.0613 c 9.96719,-1.89024 17.47986,-9.31042 19.36294,-19.12458 0.50034,-2.6076 0.64331,-20.25008 0.51137,-63.10175 l -0.18315,-59.48216 -2.28451,-4.62195 c -9.06247,-18.33483 -34.68818,-18.30546 -43.66844,0.05 l -1.97122,4.02911 -0.16582,60.91452 c -0.18289,67.18588 -0.3258,64.38126 3.59433,70.54161 3.36592,5.28941 8.17616,8.7341 14.61929,10.46909 3.89895,1.04989 6.01179,1.11753 10.18521,0.32606 z"
     id="path65" />
</svg>
