<?xml version="1.0" encoding="UTF-8" standalone="no"?>
<svg
   viewBox="0 0 448 512"
   version="1.1"
   id="svg4"
   sodipodi:docname="trash-alt2.svg"
   inkscape:version="1.1.1 (3bf5ae0d25, 2021-09-20)"
   xmlns:inkscape="http://www.inkscape.org/namespaces/inkscape"
   xmlns:sodipodi="http://sodipodi.sourceforge.net/DTD/sodipodi-0.dtd"
   xmlns="http://www.w3.org/2000/svg"
   xmlns:svg="http://www.w3.org/2000/svg">
  <defs
     id="defs8" />
  <sodipodi:namedview
     id="namedview6"
     pagecolor="#ffffff"
     bordercolor="#666666"
     borderopacity="1.0"
     inkscape:pageshadow="2"
     inkscape:pageopacity="0.0"
     inkscape:pagecheckerboard="0"
     showgrid="false"
     inkscape:zoom="1.6484375"
     inkscape:cx="224.15166"
     inkscape:cy="256.30332"
     inkscape:window-width="1920"
     inkscape:window-height="1016"
     inkscape:window-x="1920"
     inkscape:window-y="27"
     inkscape:window-maximized="1"
     inkscape:current-layer="svg4" />
  <!-- Font Awesome Free 5.15.4 by @fontawesome - https://fontawesome.com License - https://fontawesome.com/license/free (Icons: CC BY 4.0, Fonts: SIL OFL 1.1, Code: MIT License) -->
  <path
     d="M32 464a48 48 0 0 0 48 48h288a48 48 0 0 0 48-48V128H32zm272-256a16 16 0 0 1 32 0v224a16 16 0 0 1-32 0zm-96 0a16 16 0 0 1 32 0v224a16 16 0 0 1-32 0zm-96 0a16 16 0 0 1 32 0v224a16 16 0 0 1-32 0zM432 32H312l-9.4-18.7A24 24 0 0 0 281.1 0H166.8a23.72 23.72 0 0 0-21.4 13.3L136 32H16A16 16 0 0 0 0 48v32a16 16 0 0 0 16 16h416a16 16 0 0 0 16-16V48a16 16 0 0 0-16-16z"
     id="path2" />
  <path
     style="fill:#ff0000;stroke-width:0.606635"
     d="M 10.009479,94.284108 C 6.667796,92.773211 3.6617068,89.973614 1.9184052,86.748815 0.648196,84.399154 0.60663507,83.678405 0.60663507,64 c 0,-19.678403 0.0415609,-20.399155 1.31177013,-22.748815 1.7433016,-3.224796 4.7493908,-6.024396 8.0910738,-7.535293 2.68723,-1.214996 3.693447,-1.234478 64.437954,-1.247593 l 61.708107,-0.01332 5.43657,-10.767772 c 5.85299,-11.592529 8.11478,-14.7483282 12.62964,-17.6217472 6.20632,-3.94992386 3.30691,-3.80177445 70.88254,-3.62184671 l 61.22746,0.16302498 3.50913,1.41636383 c 2.13606,0.8621592 4.92888,2.7307989 7.13754,4.7756259 3.22728,2.987893 4.24769,4.5915082 9.2302,14.5056842 l 5.60181,11.146423 61.90933,0.0021 61.90932,0.0021 3.13805,1.563755 c 3.55613,1.772095 5.8158,4.173891 7.66057,8.142406 1.20311,2.588154 1.26898,3.724014 1.26898,21.881758 v 19.151894 l -1.82621,3.57086 c -2.02796,3.96538 -5.63536,7.138366 -9.2602,8.145071 -1.53692,0.426841 -69.67823,0.624361 -213.06525,0.617597 C 12.853328,95.518368 12.737861,95.517701 10.009479,94.284108 Z"
     id="path65" />
  <path
     style="fill:#ff0000;stroke-width:0.606635"
     d="M 73.402844,511.26677 C 55.753501,508.79148 40.521517,495.80298 34.423318,478.02844 L 32.758294,473.17536 32.600409,300.73934 32.442524,128.30332 H 224.15373 415.86494 l -0.16493,171.52606 c -0.15889,165.24146 -0.20634,171.67055 -1.29522,175.4692 -5.02049,17.51443 -17.21503,29.83665 -34.65124,35.01401 -3.44573,1.02314 -11.66186,1.0842 -154.0853,1.1451 -82.74503,0.0354 -151.264459,-0.0505 -152.265406,-0.19092 z m 61.270146,-64.39956 c 3.65023,-1.66398 6.10207,-4.0077 7.83909,-7.49345 l 1.56375,-3.13805 V 320 203.76429 l -1.56375,-3.13805 c -2.85949,-5.73824 -7.68811,-8.5996 -14.51208,-8.5996 -6.82397,0 -11.65259,2.86136 -14.51208,8.5996 l -1.56375,3.13805 0.0134,116.20316 c 0.0127,111.14456 0.0615,116.3088 1.11947,118.62971 2.81627,6.17802 7.95053,9.41119 14.91048,9.38952 2.82473,-0.009 5.1037,-0.38927 6.70554,-1.11947 z m 96.45497,-0.313 c 3.71598,-1.75673 5.87134,-3.98345 7.70208,-7.95705 l 1.39745,-3.03318 v -115.8673 -115.8673 l -1.61168,-3.03317 c -3.2054,-6.03256 -7.81438,-8.76957 -14.76747,-8.76957 -6.88446,0 -11.70253,3.08463 -14.64527,9.3762 l -1.4187,3.03318 V 320 435.56398 l 1.4187,3.03318 c 1.70522,3.64577 4.67715,6.72132 7.97229,8.25027 3.62314,1.68115 10.06251,1.54583 13.9526,-0.29322 z m 94.56469,0.70023 c 1.52616,-0.4557 3.71293,-1.92976 5.62464,-3.79147 5.51822,-5.37389 5.06186,5.75708 5.06186,-123.46297 0,-129.22005 0.45636,-118.08908 -5.06186,-123.46297 C 327.83698,193.14775 324.97401,192 320,192 c -4.97401,0 -7.83698,1.14775 -11.31729,4.53703 -5.51822,5.37389 -5.06186,-5.75708 -5.06186,123.46297 0,129.22723 -0.45721,118.08482 5.0665,123.47197 1.72279,1.68021 4.08572,3.3585 5.25093,3.72955 2.90808,0.92602 8.74234,0.95229 11.75437,0.0529 z"
     id="path104" />
</svg>
